\relax 
\@writefile{toc}{\contentsline {section}{\numberline {I}Latar Belakang}{1}\protected@file@percent }
\@writefile{toc}{\contentsline {section}{\numberline {II}Kajian Pustaka}{1}\protected@file@percent }
\@writefile{toc}{\contentsline {subsection}{\numberline {\unhbox \voidb@x \hbox {II-A}}Valve }{1}\protected@file@percent }
\@writefile{toc}{\contentsline {subsection}{\numberline {\unhbox \voidb@x \hbox {II-B}}Steam }{2}\protected@file@percent }
\@writefile{toc}{\contentsline {subsection}{\numberline {\unhbox \voidb@x \hbox {II-C}}Klasifikasi Algoritma K-Nearest Neighbor (KNN)}{3}\protected@file@percent }
\@writefile{toc}{\contentsline {subsection}{\numberline {\unhbox \voidb@x \hbox {II-D}}Klasifikasi Terdekat (Nearest Neighbor Classification)}{4}\protected@file@percent }
\@writefile{lof}{\contentsline {figure}{\numberline {1}{\ignorespaces Euclidean Distance}}{4}\protected@file@percent }
\newlabel{fig}{{1}{4}}
\@writefile{lof}{\contentsline {figure}{\numberline {2}{\ignorespaces Manhattan Distance}}{4}\protected@file@percent }
\newlabel{fig}{{2}{4}}
\@writefile{lof}{\contentsline {figure}{\numberline {3}{\ignorespaces Manhattan Distance}}{5}\protected@file@percent }
\newlabel{fig}{{3}{5}}
\@writefile{toc}{\contentsline {section}{\numberline {III}Metode}{5}\protected@file@percent }
\@writefile{toc}{\contentsline {subsection}{\numberline {\unhbox \voidb@x \hbox {III-A}}Pengumpulan dataset}{5}\protected@file@percent }
\@writefile{toc}{\contentsline {subsection}{\numberline {\unhbox \voidb@x \hbox {III-B}}Preprocessing}{5}\protected@file@percent }
\@writefile{toc}{\contentsline {subsubsection}{\numberline {\unhbox \voidb@x \hbox {III-B}1}Feature Selection}{5}\protected@file@percent }
\@writefile{toc}{\contentsline {subsection}{\numberline {\unhbox \voidb@x \hbox {III-C}}Label Encoding}{5}\protected@file@percent }
\@writefile{toc}{\contentsline {subsection}{\numberline {\unhbox \voidb@x \hbox {III-D}}Resampling}{5}\protected@file@percent }
\@writefile{toc}{\contentsline {subsection}{\numberline {\unhbox \voidb@x \hbox {III-E}}Analisis Sentimen}{5}\protected@file@percent }
\@writefile{toc}{\contentsline {section}{\numberline {IV}Hasil \& Pembahasan}{5}\protected@file@percent }
\@writefile{toc}{\contentsline {subsection}{\numberline {\unhbox \voidb@x \hbox {IV-A}}Pengumpulan dataset}{5}\protected@file@percent }
\@writefile{toc}{\contentsline {subsection}{\numberline {\unhbox \voidb@x \hbox {IV-B}}Preprocessing}{6}\protected@file@percent }
\@writefile{toc}{\contentsline {subsection}{\numberline {\unhbox \voidb@x \hbox {IV-C}}Label Encoding}{6}\protected@file@percent }
\@writefile{toc}{\contentsline {subsection}{\numberline {\unhbox \voidb@x \hbox {IV-D}}Resampling}{6}\protected@file@percent }
\@writefile{toc}{\contentsline {subsection}{\numberline {\unhbox \voidb@x \hbox {IV-E}}Analisis Sentimen}{6}\protected@file@percent }
\@writefile{toc}{\contentsline {subsection}{\numberline {\unhbox \voidb@x \hbox {IV-F}}Training dan Testing}{6}\protected@file@percent }
\bibcite{b1}{1}
\bibcite{b1}{2}
\bibcite{b1}{3}
\bibcite{b1}{4}
\bibcite{b1}{5}
\bibcite{b1 }{6}
\bibcite{b1}{7}
\bibcite{b1}{8}
\bibcite{b1}{9}
\bibcite{b1}{10}
\bibcite{b1}{11}
\bibcite{b1}{12}
\bibcite{b1}{13}
\bibcite{b1}{14}
\bibcite{b1}{15}
\@writefile{toc}{\contentsline {section}{\numberline {V}Kesimpulan}{7}\protected@file@percent }
\@writefile{toc}{\contentsline {section}{References}{7}\protected@file@percent }
