NAMA;t1;t2;t3;q1;t4;t5;t6;q2;uts;uas
ADITYA PUTRA PRATAMA;90;90;90;90;90;85;90;59;75;70
AGTAMANN;80;90;0;85;90;85;90;39;88;80
AISIA ARRIFIANTY FAUZI;90;90;90;90;90;95;90;62;76;89
AJENG INDRASWARI;90;90;90;90;90;85;90;85;65;90
ANGGA RUBADY;90;90;80;90;90;90;0;68;78;89
ANNEKE PUTRI MEILASARI;90;90;90;90;90;85;90;62;78;90
ANTONY KURNIAWAN;90;90;90;90;90;95;90;61;85;85
ARIEF SETIAWAN MARSIS;90;90;90;85;90;95;90;58;77;75
AYU YERIESCA;90;90;90;85;90;85;90;61;80;86
BUGAR WICAKSONO;90;90;90;85;90;95;90;59;76;89
CAHYO PROBO KUSUMO;90;80;90;90;90;90;90;63;80;75
CHRISTIAN;90;80;90;85;90;90;90;85;76;89
CINDY HERLIN MARTA;90;80;90;90;90;90;90;30;70;75
CUTRAHARDHIKA SEPTAWENI;90;80;90;90;90;85;90;63;90;60
DENNY SETIYANTO;90;85;90;90;90;90;90;63;78;77
DHITA PERTIWI;90;80;90;85;90;90;90;46;78;80
DIMAZ JULIO PRATAMA;90;0;0;85;0;0;0;61;70;76
EBRIANTO SATTRIA MALIK;90;80;90;90;90;90;90;59;77;75
EBRIANTO SATTRIA MALIK;90;80;90;90;90;85;90;63;80;89
EDI SUSANTO;0;90;0;90;0;0;0;60;60;75
EKA AGUSTINA;90;0;0;90;90;90;90;70;77;75
FAISAL AKBAR;90;80;90;90;90;90;90;46;80;80
FAJAR ANDHIKA PRASTOWO;90;90;90;90;90;95;90;59;50;60
FAJAR RIZKIANSYAH;90;90;90;80;90;85;90;63;90;76
FARADILA;80;90;90;90;90;95;90;60;77;88
FERDIANSYAH;90;90;90;90;90;85;90;60;80;89
GATOT TEGUH ARIPIANTO;90;90;90;85;90;85;90;33;75;75
GENTA ADITYA KARMADI PUTRA;90;80;90;90;90;90;90;30;65;60
GITA AURELIA;90;80;90;80;90;85;90;46;90;75
GITA TARTILA;90;80;90;90;90;85;90;30;50;60
HADI SAPUTRA;90;90;90;90;90;0;90;30;50;60
HARLOW MOHAMMAD;85;85;90;85;90;95;90;33;65;60
ILHAM IZWALDI;90;80;90;85;90;90;90;39;65;70
INDAH NUR ZAHRA;90;80;90;85;90;90;90;46;70;75
INDRI HAPSARI;90;80;90;90;90;85;90;46;70;75
IQBAL HADIYAN;90;80;90;80;90;90;90;46;75;75
IRVANUDDIN RAHMAN;90;80;90;85;90;85;90;58;75;75
JOEI ASTRA BRAHMANA;90;85;90;90;90;90;90;59;75;75
JOKO WILARDI;90;80;90;85;90;85;90;59;75;75
KARINA SAFITRI;90;90;90;90;90;0;90;59;76;75
KENNY ELLANTO;85;85;90;90;90;95;90;59;76;76
KHALIFAH AGAM S;90;80;90;90;90;90;90;60;76;76
LENDRA KUSUMA WARDOYO;0;90;90;90;90;90;90;60;77;77
LILIS SETYOWATI;90;80;90;90;90;85;90;60;77;78
MANDAR NUR ASLAM;80;90;90;85;90;95;90;61;77;80
MANIKAM DAMARJATI;90;80;90;85;90;90;90;61;78;80
MARSHA MOCHRAN;90;80;90;85;90;85;90;62;78;85
MASAYU MAYA P S;0;80;90;90;90;90;90;62;78;86
MUHAMMAD ABDUH JALIL RUMF;90;80;90;90;90;85;90;62;80;86
MUHAMMAD AZMI ARIEF;90;0;90;90;90;85;90;63;80;88
MUHAMMAD FACHRUL A;90;90;90;90;90;0;90;63;80;88
MUHAMMAD SHIDIQ;85;85;90;90;90;95;90;63;80;89
OSEP CHAERUL ANWAR;90;90;90;80;90;85;90;63;85;89
PRIMA ARMANDA NUGRAHA;90;80;90;90;90;90;90;68;88;89
REIZA ADI PUTRA;80;90;0;90;90;85;90;70;90;89
REZA FERDIAN;90;90;80;90;90;90;0;85;90;90
SHANTI WIANDRA PUTRI;90;90;90;85;90;95;90;85;90;90
SINTA WULANDARI;90;90;90;90;90;95;90;59;78;76
SYALIS IBNIH MELATI ISTIN;90;90;90;85;90;95;90;59;80;76
SYAMSUL MUSTAQIM;90;80;90;90;90;90;90;59;80;77
TITO BERLIAN;90;80;90;90;90;90;90;59;80;78
YOGA;90;80;90;90;90;90;90;60;80;80
YOZI FERDIZAL;90;80;90;90;90;90;90;60;80;77
YUMANISSA NADIA SARI;90;80;90;90;90;90;90;60;78;78
