\relax 
\@writefile{toc}{\contentsline {section}{\numberline {I}Latar Belakang}{1}\protected@file@percent }
\@writefile{toc}{\contentsline {section}{\numberline {II}Metode Preprocessing}{1}\protected@file@percent }
\@writefile{toc}{\contentsline {section}{\numberline {III}Penerapan}{1}\protected@file@percent }
\bibcite{b1}{1}
\bibcite{b2}{2}
\bibcite{b3}{3}
\bibcite{b4}{4}
\bibcite{b5}{5}
\bibcite{b6}{6}
\bibcite{b7}{7}
\@writefile{toc}{\contentsline {section}{\numberline {IV}Hasil \& Pembahasan}{2}\protected@file@percent }
\@writefile{toc}{\contentsline {section}{References}{2}\protected@file@percent }
